<?xml version="1.0" encoding="utf-8"?>
<!-- Generator: Adobe Illustrator 25.0.0, SVG Export Plug-In . SVG Version: 6.00 Build 0)  -->
<svg version="1.1" id="Layer_1" xmlns="http://www.w3.org/2000/svg" xmlns:xlink="http://www.w3.org/1999/xlink" x="0px" y="0px"
	 viewBox="0 0 10 28" enable-background="new 0 0 10 28" xml:space="preserve">
<path fill="#BBBBBC" d="M0,0c0,0,4.8-0.6,6.5,4.5C8.5,10.5,10,28,10,28H0V0z"/>
</svg>
